build/trace.vcd
$date
     May 04, 2019       20:13:24
$end

$version
 SystemC 2.3.3-Accellera --- Mar 27 2019 08:27:45
$end

$timescale
     1 ps
$end

$scope module SystemC $end
$scope module nea $end
$var wire    1  aaaaa  clock       $end
$var wire    1  aaaac  pc_load       $end
$var wire    1  aaaad  pc_inc       $end
$var wire    1  aaaae  mem_addr_sel       $end
$var wire    8  aaaaf  mem_addr_in [7:0]  $end
$var wire    8  aaaag  mem_data_out [7:0]  $end
$var wire    1  aaaah  mem_rd       $end
$var wire    1  aaaai  mem_wr       $end
$var wire    1  aaaaj  ac_load       $end
$var wire    8  aaaak  ula_op [7:0]  $end
$var wire    1  aaaal  ula_op_now       $end
$var wire    8  aaaam  main_state [7:0]  $end
$var wire    8  aaaan  pc_data_out [7:0]  $end
$var wire    8  aaaao  ac_data_out [7:0]  $end
$var wire    8  aaaap  ula_result [7:0]  $end
$scope module ac $end
$var wire    8  aaaaq  data_out [7:0]  $end
$upscope $end
$scope module cu $end
$var wire    8  aaaab  main_state [7:0]  $end
$var wire    8  aaaay  instruction_decoder [7:0]  $end
$var wire    1  aaaaz  clock       $end
$upscope $end
$scope module mem $end
$var wire    8  aaaat  data_out [7:0]  $end
$var wire    8  aaaau  data_out [7:0]  $end
$var wire    8  aaaav  data_in [7:0]  $end
$var wire    1  aaaaw  rd       $end
$upscope $end
$scope module pc $end
$var wire    8  aaaax  data_out [7:0]  $end
$upscope $end
$scope module ula $end
$var wire    8  aaaar  input_b [7:0]  $end
$var wire    8  aaaas  input_a [7:0]  $end
$upscope $end
$upscope $end
$upscope $end
$enddefinitions  $end

$comment
All initial values are dumped below at time 0 sec = 0 timescale units.
$end

$dumpvars
1aaaaa
b1000 aaaab
0aaaac
0aaaad
0aaaae
b0 aaaaf
b0 aaaag
0aaaah
0aaaai
0aaaaj
b0 aaaak
0aaaal
b11 aaaam
b0 aaaan
b0 aaaao
b0 aaaap
b0 aaaaq
b0 aaaar
b0 aaaas
b0 aaaat
b0 aaaau
b0 aaaav
0aaaaw
b0 aaaax
b0 aaaay
1aaaaz
$end

#500
0aaaaa
0aaaaz

#1000
1aaaaa
b1001 aaaab
b100000 aaaag
1aaaah
b100 aaaam
b100000 aaaas
b100000 aaaat
b100000 aaaau
1aaaaw
b100000 aaaay
1aaaaz

#1500
0aaaaa
0aaaah
0aaaaw
0aaaaz

#2000
1aaaaa
b1010 aaaab
1aaaad
b1 aaaaf
1aaaah
b111 aaaam
b1 aaaan
1aaaaw
b1 aaaax
1aaaaz

#2500
0aaaaa
0aaaad
0aaaah
0aaaaw
0aaaaz

#3000
1aaaaa
b1011 aaaab
1aaaae
b1010 aaaaf
b1010 aaaag
1aaaah
b1010 aaaas
b1010 aaaat
b1010 aaaau
1aaaaw
b1010 aaaay
1aaaaz

#3500
0aaaaa
0aaaah
0aaaaw
0aaaaz

#4000
1aaaaa
b1100 aaaab
1aaaal
b1010 aaaap
1aaaaz

#4500
0aaaaa
0aaaal
0aaaaz

#5000
1aaaaa
b1000 aaaab
1aaaad
0aaaae
b10 aaaaf
b0 aaaag
1aaaah
1aaaaj
b10 aaaan
b1010 aaaao
b1010 aaaaq
b1010 aaaar
b0 aaaas
b0 aaaat
b0 aaaau
b1010 aaaav
1aaaaw
b10 aaaax
b0 aaaay
1aaaaz

#5500
0aaaaa
0aaaad
0aaaah
0aaaaj
0aaaaw
0aaaaz

#6000
1aaaaa
b1001 aaaab
b110000 aaaag
1aaaah
b110000 aaaas
b110000 aaaat
b110000 aaaau
1aaaaw
b110000 aaaay
1aaaaz

#6500
0aaaaa
0aaaah
0aaaaw
0aaaaz

#7000
1aaaaa
b1010 aaaab
1aaaad
b11 aaaaf
1aaaah
b1 aaaak
b11 aaaan
1aaaaw
b11 aaaax
1aaaaz

#7500
0aaaaa
0aaaad
0aaaah
0aaaaw
0aaaaz

#8000
1aaaaa
b1011 aaaab
1aaaae
b1011 aaaaf
b1011 aaaag
1aaaah
b1011 aaaas
b1011 aaaat
b1011 aaaau
1aaaaw
b1011 aaaay
1aaaaz

#8500
0aaaaa
0aaaah
0aaaaw
0aaaaz

#9000
1aaaaa
b1100 aaaab
1aaaal
1aaaaz

#9500
0aaaaa
0aaaal
b10101 aaaap
0aaaaz

#10000
1aaaaa
b1000 aaaab
1aaaad
0aaaae
b100 aaaaf
b0 aaaag
1aaaah
1aaaaj
b100 aaaan
b10101 aaaao
b10101 aaaaq
b10101 aaaar
b0 aaaas
b0 aaaat
b0 aaaau
b10101 aaaav
1aaaaw
b100 aaaax
b0 aaaay
1aaaaz

#10500
0aaaaa
0aaaad
0aaaah
0aaaaj
0aaaaw
0aaaaz

#11000
1aaaaa
b1001 aaaab
b110000 aaaag
1aaaah
b110000 aaaas
b110000 aaaat
b110000 aaaau
1aaaaw
b110000 aaaay
1aaaaz

#11500
0aaaaa
0aaaah
0aaaaw
0aaaaz

#12000
1aaaaa
b1010 aaaab
1aaaad
b101 aaaaf
1aaaah
b101 aaaan
1aaaaw
b101 aaaax
1aaaaz

#12500
0aaaaa
0aaaad
0aaaah
0aaaaw
0aaaaz

#13000
1aaaaa
b1011 aaaab
1aaaae
b1 aaaaf
b1 aaaag
1aaaah
b1 aaaas
b1 aaaat
b1 aaaau
1aaaaw
b1 aaaay
1aaaaz

#13500
0aaaaa
0aaaah
0aaaaw
0aaaaz

#14000
1aaaaa
b1100 aaaab
1aaaal
1aaaaz

#14500
0aaaaa
0aaaal
b10110 aaaap
0aaaaz

#15000
1aaaaa
b1000 aaaab
1aaaad
0aaaae
b110 aaaaf
b1010 aaaag
1aaaah
1aaaaj
b110 aaaan
b10110 aaaao
b10110 aaaaq
b10110 aaaar
b1010 aaaas
b1010 aaaat
b1010 aaaau
b10110 aaaav
1aaaaw
b110 aaaax
b1010 aaaay
1aaaaz

#15500
0aaaaa
0aaaad
0aaaah
0aaaaj
0aaaaw
0aaaaz

#16000
1aaaaa
b1001 aaaab
b10000 aaaag
1aaaah
b10000 aaaas
b10000 aaaat
b10000 aaaau
1aaaaw
b10000 aaaay
1aaaaz

#16500
0aaaaa
0aaaah
0aaaaw
0aaaaz

#17000
1aaaaa
b1010 aaaab
1aaaad
b111 aaaaf
1aaaah
b0 aaaak
b111 aaaan
1aaaaw
b111 aaaax
1aaaaz

#17500
0aaaaa
0aaaad
0aaaah
0aaaaw
0aaaaz

#18000
1aaaaa
b1011 aaaab
1aaaae
b11111111 aaaaf
b11111111 aaaag
1aaaah
b11111111 aaaas
b11111111 aaaat
b11111111 aaaau
1aaaaw
b11111111 aaaay
1aaaaz

#18500
0aaaaa
0aaaah
0aaaaw
0aaaaz

#19000
1aaaaa
b1100 aaaab
1aaaai
1aaaaz

#19500
0aaaaa
0aaaai
0aaaaz

