build/trace.vcd
$date
     Apr 30, 2019       21:27:12
$end

$version
 SystemC 2.3.3-Accellera --- Mar 27 2019 08:27:45
$end

$timescale
     1 ps
$end

$scope module SystemC $end
$scope module nea $end
$var wire    1  aaaaa  clock       $end
$var wire    1  aaaac  pc_load       $end
$var wire    1  aaaad  pc_inc       $end
$var wire    1  aaaae  mem_addr_sel       $end
$var wire    8  aaaaf  mem_addr_in [7:0]  $end
$var wire    8  aaaag  mem_data_out [7:0]  $end
$var wire    8  aaaah  mem_data_out [7:0]  $end
$var wire    1  aaaai  mem_rd       $end
$var wire    1  aaaaj  mem_wr       $end
$var wire    1  aaaak  ac_load       $end
$var wire    8  aaaal  ula_op [7:0]  $end
$var wire    8  aaaam  main_state [7:0]  $end
$var wire    8  aaaan  pc_data_out [7:0]  $end
$scope module ac $end
$var wire    8  aaaao  data_out [7:0]  $end
$upscope $end
$scope module cu $end
$var wire    8  aaaab  main_state [7:0]  $end
$var wire    8  aaaat  instruction_decoder [7:0]  $end
$var wire    1  aaaau  clock       $end
$upscope $end
$scope module mem $end
$var wire    8  aaaap  data_out [7:0]  $end
$var wire    8  aaaaq  data_out [7:0]  $end
$var wire    1  aaaar  rd       $end
$upscope $end
$scope module pc $end
$var wire    8  aaaas  data_out [7:0]  $end
$upscope $end
$upscope $end
$upscope $end
$enddefinitions  $end

$comment
All initial values are dumped below at time 0 sec = 0 timescale units.
$end

$dumpvars
1aaaaa
b1000 aaaab
0aaaac
0aaaad
0aaaae
b0 aaaaf
b100000 aaaag
b0 aaaah
0aaaai
0aaaaj
0aaaak
b0 aaaal
b11 aaaam
b0 aaaan
b0 aaaao
b100000 aaaap
b100000 aaaaq
0aaaar
b0 aaaas
b100000 aaaat
1aaaau
$end

#500
0aaaaa
0aaaau

#1000
1aaaaa
b1001 aaaab
1aaaad
1aaaae
b0 aaaag
1aaaai
b100 aaaam
b1 aaaan
b0 aaaap
b0 aaaaq
1aaaar
b1 aaaas
b0 aaaat
1aaaau

#1500
0aaaaa
0aaaad
b100000 aaaaf
b100000 aaaag
0aaaai
b100000 aaaap
b100000 aaaaq
0aaaar
b100000 aaaat
0aaaau

#2000
1aaaaa
b1010 aaaab
1aaaad
b0 aaaaf
b0 aaaag
1aaaai
b111 aaaam
b10 aaaan
b0 aaaap
b0 aaaaq
1aaaar
b10 aaaas
b0 aaaat
1aaaau

#2500
0aaaaa
0aaaad
b100000 aaaaf
b100000 aaaag
0aaaai
b100000 aaaap
b100000 aaaaq
0aaaar
b100000 aaaat
0aaaau

#3000
1aaaaa
b1011 aaaab
1aaaad
b0 aaaaf
b0 aaaag
1aaaai
b11 aaaan
b0 aaaap
b0 aaaaq
1aaaar
b11 aaaas
b0 aaaat
1aaaau

#3500
0aaaaa
0aaaad
b100000 aaaaf
b100000 aaaag
0aaaai
b100000 aaaap
b100000 aaaaq
0aaaar
b100000 aaaat
0aaaau

#4000
1aaaaa
b1000 aaaab
1aaaad
0aaaae
b100 aaaaf
b0 aaaag
1aaaai
1aaaak
b100 aaaan
b100000 aaaao
b0 aaaap
b0 aaaaq
1aaaar
b100 aaaas
b0 aaaat
1aaaau

#4500
0aaaaa
0aaaad
b10000 aaaag
0aaaai
0aaaak
b10000 aaaap
b10000 aaaaq
0aaaar
b10000 aaaat
0aaaau

#5000
1aaaaa
b1001 aaaab
1aaaad
1aaaae
b0 aaaaf
b0 aaaag
1aaaai
b101 aaaan
b0 aaaap
b0 aaaaq
1aaaar
b101 aaaas
b0 aaaat
1aaaau

#5500
0aaaaa
0aaaad
b100000 aaaaf
b100000 aaaag
0aaaai
b100000 aaaap
b100000 aaaaq
0aaaar
b100000 aaaat
0aaaau

#6000
1aaaaa
b1010 aaaab
1aaaad
b0 aaaaf
b0 aaaag
1aaaai
b110 aaaan
b0 aaaap
b0 aaaaq
1aaaar
b110 aaaas
b0 aaaat
1aaaau

#6500
0aaaaa
0aaaad
b100000 aaaaf
b100000 aaaag
0aaaai
b100000 aaaap
b100000 aaaaq
0aaaar
b100000 aaaat
0aaaau

#7000
1aaaaa
b1011 aaaab
1aaaad
b0 aaaaf
b0 aaaag
1aaaai
b111 aaaan
b0 aaaap
b0 aaaaq
1aaaar
b111 aaaas
b0 aaaat
1aaaau

#7500
0aaaaa
0aaaad
b100000 aaaaf
b100000 aaaag
0aaaai
b100000 aaaap
b100000 aaaaq
0aaaar
b100000 aaaat
0aaaau

#8000
1aaaaa
b1000 aaaab
1aaaad
0aaaae
b1000 aaaaf
b0 aaaag
1aaaai
1aaaak
b1000 aaaan
b0 aaaap
b0 aaaaq
1aaaar
b1000 aaaas
b0 aaaat
1aaaau

#8500
0aaaaa
0aaaad
0aaaai
0aaaak
0aaaar
0aaaau

#9000
1aaaaa
b1001 aaaab
1aaaad
1aaaae
b0 aaaaf
1aaaai
b1001 aaaan
1aaaar
b1001 aaaas
1aaaau

#9500
0aaaaa
0aaaad
b100000 aaaaf
b100000 aaaag
0aaaai
b100000 aaaap
b100000 aaaaq
0aaaar
b100000 aaaat
0aaaau

#10000
1aaaaa
b1010 aaaab
1aaaad
b0 aaaaf
b0 aaaag
1aaaai
b1010 aaaan
b0 aaaap
b0 aaaaq
1aaaar
b1010 aaaas
b0 aaaat
1aaaau

#10500
0aaaaa
0aaaad
b100000 aaaaf
b100000 aaaag
0aaaai
b100000 aaaap
b100000 aaaaq
0aaaar
b100000 aaaat
0aaaau

#11000
1aaaaa
b1011 aaaab
1aaaad
b0 aaaaf
b0 aaaag
1aaaai
b1011 aaaan
b0 aaaap
b0 aaaaq
1aaaar
b1011 aaaas
b0 aaaat
1aaaau

#11500
0aaaaa
0aaaad
b100000 aaaaf
b100000 aaaag
0aaaai
b100000 aaaap
b100000 aaaaq
0aaaar
b100000 aaaat
0aaaau

#12000
1aaaaa
b1000 aaaab
1aaaad
0aaaae
b1100 aaaaf
b0 aaaag
1aaaai
1aaaak
b1100 aaaan
b0 aaaap
b0 aaaaq
1aaaar
b1100 aaaas
b0 aaaat
1aaaau

#12500
0aaaaa
0aaaad
0aaaai
0aaaak
0aaaar
0aaaau

#13000
1aaaaa
b1001 aaaab
1aaaad
1aaaae
b0 aaaaf
1aaaai
b1101 aaaan
1aaaar
b1101 aaaas
1aaaau

#13500
0aaaaa
0aaaad
b100000 aaaaf
b100000 aaaag
0aaaai
b100000 aaaap
b100000 aaaaq
0aaaar
b100000 aaaat
0aaaau

#14000
1aaaaa
b1010 aaaab
1aaaad
b0 aaaaf
b0 aaaag
1aaaai
b1110 aaaan
b0 aaaap
b0 aaaaq
1aaaar
b1110 aaaas
b0 aaaat
1aaaau

#14500
0aaaaa
0aaaad
b100000 aaaaf
b100000 aaaag
0aaaai
b100000 aaaap
b100000 aaaaq
0aaaar
b100000 aaaat
0aaaau

#15000
1aaaaa
b1011 aaaab
1aaaad
b0 aaaaf
b0 aaaag
1aaaai
b1111 aaaan
b0 aaaap
b0 aaaaq
1aaaar
b1111 aaaas
b0 aaaat
1aaaau

#15500
0aaaaa
0aaaad
b100000 aaaaf
b100000 aaaag
0aaaai
b100000 aaaap
b100000 aaaaq
0aaaar
b100000 aaaat
0aaaau

#16000
1aaaaa
b1000 aaaab
1aaaad
0aaaae
b10000 aaaaf
b0 aaaag
1aaaai
1aaaak
b10000 aaaan
b0 aaaap
b0 aaaaq
1aaaar
b10000 aaaas
b0 aaaat
1aaaau

#16500
0aaaaa
0aaaad
0aaaai
0aaaak
0aaaar
0aaaau

#17000
1aaaaa
b1001 aaaab
1aaaad
1aaaae
b0 aaaaf
1aaaai
b10001 aaaan
1aaaar
b10001 aaaas
1aaaau

#17500
0aaaaa
0aaaad
b100000 aaaaf
b100000 aaaag
0aaaai
b100000 aaaap
b100000 aaaaq
0aaaar
b100000 aaaat
0aaaau

#18000
1aaaaa
b1010 aaaab
1aaaad
b0 aaaaf
b0 aaaag
1aaaai
b10010 aaaan
b0 aaaap
b0 aaaaq
1aaaar
b10010 aaaas
b0 aaaat
1aaaau

#18500
0aaaaa
0aaaad
b100000 aaaaf
b100000 aaaag
0aaaai
b100000 aaaap
b100000 aaaaq
0aaaar
b100000 aaaat
0aaaau

#19000
1aaaaa
b1011 aaaab
1aaaad
b0 aaaaf
b0 aaaag
1aaaai
b10011 aaaan
b0 aaaap
b0 aaaaq
1aaaar
b10011 aaaas
b0 aaaat
1aaaau

#19500
0aaaaa
0aaaad
b100000 aaaaf
b100000 aaaag
0aaaai
b100000 aaaap
b100000 aaaaq
0aaaar
b100000 aaaat
0aaaau

