build/trace.vcd
$date
     May 04, 2019       18:21:09
$end

$version
 SystemC 2.3.3-Accellera --- Mar 27 2019 08:27:45
$end

$timescale
     1 ps
$end

$scope module SystemC $end
$scope module nea $end
$var wire    1  aaaaa  clock       $end
$var wire    1  aaaac  pc_load       $end
$var wire    1  aaaad  pc_inc       $end
$var wire    1  aaaae  mem_addr_sel       $end
$var wire    8  aaaaf  mem_addr_in [7:0]  $end
$var wire    8  aaaag  mem_data_out [7:0]  $end
$var wire    8  aaaah  mem_data_out [7:0]  $end
$var wire    1  aaaai  mem_rd       $end
$var wire    1  aaaaj  mem_wr       $end
$var wire    1  aaaak  ac_load       $end
$var wire    8  aaaal  ula_op [7:0]  $end
$var wire    1  aaaam  ula_op_now       $end
$var wire    8  aaaan  main_state [7:0]  $end
$var wire    8  aaaao  pc_data_out [7:0]  $end
$var wire    8  aaaap  ac_data_out [7:0]  $end
$var wire    8  aaaaq  ula_result [7:0]  $end
$scope module ac $end
$var wire    8  aaaar  data_out [7:0]  $end
$upscope $end
$scope module cu $end
$var wire    8  aaaab  main_state [7:0]  $end
$var wire    8  aaaay  instruction_decoder [7:0]  $end
$var wire    1  aaaaz  clock       $end
$upscope $end
$scope module mem $end
$var wire    8  aaaau  data_out [7:0]  $end
$var wire    8  aaaav  data_out [7:0]  $end
$var wire    1  aaaaw  rd       $end
$upscope $end
$scope module pc $end
$var wire    8  aaaax  data_out [7:0]  $end
$upscope $end
$scope module ula $end
$var wire    8  aaaas  input_b [7:0]  $end
$var wire    8  aaaat  input_a [7:0]  $end
$upscope $end
$upscope $end
$upscope $end
$enddefinitions  $end

$comment
All initial values are dumped below at time 0 sec = 0 timescale units.
$end

$dumpvars
1aaaaa
b1000 aaaab
0aaaac
0aaaad
0aaaae
b0 aaaaf
b0 aaaag
b0 aaaah
0aaaai
0aaaaj
0aaaak
b0 aaaal
0aaaam
b11 aaaan
b0 aaaao
b0 aaaap
b0 aaaaq
b0 aaaar
b0 aaaas
b0 aaaat
b0 aaaau
b0 aaaav
0aaaaw
b0 aaaax
b0 aaaay
1aaaaz
$end

#500
0aaaaa
0aaaaz

#1000
1aaaaa
b1001 aaaab
b100000 aaaag
1aaaai
b100 aaaan
b100000 aaaat
b100000 aaaau
b100000 aaaav
1aaaaw
b100000 aaaay
1aaaaz

#1500
0aaaaa
0aaaai
0aaaaw
0aaaaz

#2000
1aaaaa
b1010 aaaab
1aaaad
b1 aaaaf
1aaaai
b111 aaaan
b1 aaaao
1aaaaw
b1 aaaax
1aaaaz

#2500
0aaaaa
0aaaad
0aaaai
0aaaaw
0aaaaz

#3000
1aaaaa
b1011 aaaab
1aaaae
b1010 aaaaf
b1010 aaaag
1aaaai
b1010 aaaat
b1010 aaaau
b1010 aaaav
1aaaaw
b1010 aaaay
1aaaaz

#3500
0aaaaa
0aaaai
0aaaaw
0aaaaz

#4000
1aaaaa
b1100 aaaab
1aaaam
b1010 aaaaq
1aaaaz

#4500
0aaaaa
0aaaam
0aaaaz

#5000
1aaaaa
b1000 aaaab
1aaaad
0aaaae
b10 aaaaf
b0 aaaag
1aaaai
1aaaak
b10 aaaao
b1010 aaaap
b1010 aaaar
b1010 aaaas
b0 aaaat
b0 aaaau
b0 aaaav
1aaaaw
b10 aaaax
b0 aaaay
1aaaaz

#5500
0aaaaa
0aaaad
0aaaai
0aaaak
0aaaaw
0aaaaz

#6000
1aaaaa
b1001 aaaab
b110000 aaaag
1aaaai
b110000 aaaat
b110000 aaaau
b110000 aaaav
1aaaaw
b110000 aaaay
1aaaaz

#6500
0aaaaa
0aaaai
0aaaaw
0aaaaz

#7000
1aaaaa
b1010 aaaab
1aaaad
b11 aaaaf
1aaaai
b1 aaaal
b11 aaaao
1aaaaw
b11 aaaax
1aaaaz

#7500
0aaaaa
0aaaad
0aaaai
0aaaaw
0aaaaz

#8000
1aaaaa
b1011 aaaab
1aaaae
b1011 aaaaf
b1011 aaaag
1aaaai
b1011 aaaat
b1011 aaaau
b1011 aaaav
1aaaaw
b1011 aaaay
1aaaaz

#8500
0aaaaa
0aaaai
0aaaaw
0aaaaz

#9000
1aaaaa
b1100 aaaab
1aaaam
1aaaaz

#9500
0aaaaa
0aaaam
b10101 aaaaq
0aaaaz

#10000
1aaaaa
b1000 aaaab
1aaaad
0aaaae
b100 aaaaf
b0 aaaag
1aaaai
1aaaak
b100 aaaao
b10101 aaaap
b10101 aaaar
b10101 aaaas
b0 aaaat
b0 aaaau
b0 aaaav
1aaaaw
b100 aaaax
b0 aaaay
1aaaaz

#10500
0aaaaa
0aaaad
0aaaai
0aaaak
0aaaaw
0aaaaz

#11000
1aaaaa
b1001 aaaab
b10000 aaaag
1aaaai
b10000 aaaat
b10000 aaaau
b10000 aaaav
1aaaaw
b10000 aaaay
1aaaaz

#11500
0aaaaa
0aaaai
0aaaaw
0aaaaz

#12000
1aaaaa
b1010 aaaab
1aaaad
b101 aaaaf
1aaaai
b0 aaaal
b101 aaaao
1aaaaw
b101 aaaax
1aaaaz

#12500
0aaaaa
0aaaad
0aaaai
0aaaaw
0aaaaz

#13000
1aaaaa
b1011 aaaab
1aaaae
b11111111 aaaaf
b11111111 aaaag
1aaaai
b11111111 aaaat
b11111111 aaaau
b11111111 aaaav
1aaaaw
b11111111 aaaay
1aaaaz

#13500
0aaaaa
0aaaai
0aaaaw
0aaaaz

#14000
1aaaaa
b1100 aaaab
1aaaam
b11111111 aaaaq
1aaaaz

#14500
0aaaaa
0aaaam
0aaaaz

#15000
1aaaaa
b1000 aaaab
1aaaad
0aaaae
b110 aaaaf
b0 aaaag
1aaaai
b110 aaaao
b0 aaaat
b0 aaaau
b0 aaaav
1aaaaw
b110 aaaax
b0 aaaay
1aaaaz

#15500
0aaaaa
0aaaad
0aaaai
0aaaaw
0aaaaz

#16000
1aaaaa
b1001 aaaab
b11110000 aaaag
1aaaai
b11110000 aaaat
b11110000 aaaau
b11110000 aaaav
1aaaaw
b11110000 aaaay
1aaaaz

#16500
0aaaaa
0aaaai
0aaaaw
0aaaaz

#17000
1aaaaa
b111 aaaab
1aaaad
b111 aaaaf
1aaaai
b111 aaaao
1aaaaw
b111 aaaax
1aaaaz

#17500
0aaaaa
0aaaad
0aaaai
0aaaaw
0aaaaz

